How To
…
pivotted <- scenarios_agg %>% 
  st_extract(berlin) %>% 
  filter(scenario == "rcp45") %>% 
  st_as_sf(long = TRUE) %>% 
  mutate(year = year(TIME)) %>% 
  pivot_longer(SUIT_E:SUIT_L, names_to = "variety", values_to = "suitability")

pivotted

Simple feature collection with 600 features and 5 fields
Geometry type: MULTIPOLYGON
Dimension:     XY
Bounding box:  xmin: 13.0882 ymin: 52.34182 xmax: 13.7606 ymax: 52.66972
Geodetic CRS:  WGS 84
# A tibble: 600 × 6
   TIME                scenario                           geometry  year variety
   <dttm>              <fct>                    <MULTIPOLYGON [°]> <dbl> <chr>  
 1 1980-06-01 12:00:00 rcp45    (((13.61191 52.54331, 13.6246 52.…  1980 SUIT_E 
 2 1980-06-01 12:00:00 rcp45    (((13.61191 52.54331, 13.6246 52.…  1980 SUIT_EM
 3 1980-06-01 12:00:00 rcp45    (((13.61191 52.54331, 13.6246 52.…  1980 SUIT_M 
 4 1980-06-01 12:00:00 rcp45    (((13.61191 52.54331, 13.6246 52.…  1980 SUIT_ML
 5 1980-06-01 12:00:00 rcp45    (((13.61191 52.54331, 13.6246 52.…  1980 SUIT_L 
 6 1981-06-02 12:00:00 rcp45    (((13.61191 52.54331, 13.6246 52.…  1981 SUIT_E 
 7 1981-06-02 12:00:00 rcp45    (((13.61191 52.54331, 13.6246 52.…  1981 SUIT_EM
 8 1981-06-02 12:00:00 rcp45    (((13.61191 52.54331, 13.6246 52.…  1981 SUIT_M 
 9 1981-06-02 12:00:00 rcp45    (((13.61191 52.54331, 13.6246 52.…  1981 SUIT_ML
10 1981-06-02 12:00:00 rcp45    (((13.61191 52.54331, 13.6246 52.…  1981 SUIT_L 
# ℹ 590 more rows
# ℹ 1 more variable: suitability <dbl>
…
